com\unisys\eportal\manager\ExcelUtils.class
com\unisys\eportal\manager\Initialize$updateValue.class
com\unisys\eportal\manager\Common_Methods$Sel.class
com\unisys\eportal\manager\ReportManager.class
com\unisys\eportal\manager\Common_Methods$1.class
com\unisys\eportal\manager\Common_Methods.class
com\unisys\eportal\manager\App_Networx.class
com\unisys\eportal\manager\ReportManager$1.class
com\unisys\eportal\manager\LoginPageData.class
com\unisys\eportal\manager\ReadExcel.class
com\unisys\eportal\manager\GlobalVariables.class
com\unisys\eportal\manager\Constants.class
com\unisys\eportal\manager\Initialize$TestStatus.class
com\unisys\eportal\manager\Common_Methods$SeleniumIdentifiers.class
com\unisys\eportal\manager\Initialize.class
