C:\Autothon\unisys-authothon\ePortalDemo\src\main\java\com\unisys\eportal\manager\ReadExcel.java
C:\Autothon\unisys-authothon\ePortalDemo\src\main\java\com\unisys\eportal\manager\Constants.java
C:\Autothon\unisys-authothon\ePortalDemo\src\main\java\com\unisys\eportal\manager\LoginPageData.java
C:\Autothon\unisys-authothon\ePortalDemo\src\main\java\com\unisys\eportal\manager\App_Networx.java
C:\Autothon\unisys-authothon\ePortalDemo\src\main\java\com\unisys\eportal\manager\ExcelUtils.java
C:\Autothon\unisys-authothon\ePortalDemo\src\main\java\com\unisys\eportal\manager\ReportManager.java
C:\Autothon\unisys-authothon\ePortalDemo\src\main\java\com\unisys\eportal\manager\Initialize.java
C:\Autothon\unisys-authothon\ePortalDemo\src\main\java\com\unisys\eportal\manager\WriteExcel.java
C:\Autothon\unisys-authothon\ePortalDemo\src\main\java\com\unisys\eportal\manager\GlobalVariables.java
C:\Autothon\unisys-authothon\ePortalDemo\src\main\java\com\unisys\eportal\manager\Common_Methods.java
